04.01.2021,26.14
05.01.2021,26.225
06.01.2021,26.145
07.01.2021,26.145
08.01.2021,26.165
11.01.2021,26.24
12.01.2021,26.19
13.01.2021,26.175
14.01.2021,26.19
15.01.2021,26.16
18.01.2021,26.185
19.01.2021,26.16
20.01.2021,26.125
21.01.2021,26.095
22.01.2021,26.15
25.01.2021,26.08
26.01.2021,26.08
27.01.2021,26.025
28.01.2021,26.115
29.01.2021,26.02
01.02.2021,25.97
02.02.2021,25.9
03.02.2021,25.925
04.02.2021,25.895
05.02.2021,25.805
08.02.2021,25.735
09.02.2021,25.74
10.02.2021,25.83
11.02.2021,25.77
12.02.2021,25.755
15.02.2021,25.68
16.02.2021,25.755
17.02.2021,25.885
18.02.2021,25.86
19.02.2021,25.845
22.02.2021,25.955
23.02.2021,25.905
24.02.2021,25.975
25.02.2021,26.11
26.02.2021,26.195
01.03.2021,26.08
02.03.2021,26.14
03.03.2021,26.14
04.03.2021,26.205
05.03.2021,26.305
08.03.2021,26.42
09.03.2021,26.285
10.03.2021,26.225
11.03.2021,26.17
12.03.2021,26.15
15.03.2021,26.195
16.03.2021,26.2
17.03.2021,26.16
18.03.2021,26.17
19.03.2021,26.13
22.03.2021,26.075
23.03.2021,26.195
24.03.2021,26.205
25.03.2021,26.235
26.03.2021,26.085
29.03.2021,26.08
30.03.2021,26.125
31.03.2021,26.145
01.04.2021,26.085
06.04.2021,26.05
07.04.2021,25.915
08.04.2021,25.88
09.04.2021,25.94
12.04.2021,26.025
13.04.2021,26.015
14.04.2021,25.935
15.04.2021,25.94
16.04.2021,25.925
19.04.2021,25.9
20.04.2021,25.905
21.04.2021,25.89
22.04.2021,25.86
23.04.2021,25.845
26.04.2021,25.805
27.04.2021,25.895
28.04.2021,25.96
29.04.2021,25.815
30.04.2021,25.885
03.05.2021,25.785
04.05.2021,25.845
05.05.2021,25.8
06.05.2021,25.845
07.05.2021,25.68
10.05.2021,25.59
11.05.2021,25.575
12.05.2021,25.52
13.05.2021,25.575
14.05.2021,25.49
17.05.2021,25.495
18.05.2021,25.43
19.05.2021,25.445
20.05.2021,25.515
21.05.2021,25.45
24.05.2021,25.43
25.05.2021,25.45
26.05.2021,25.45
27.05.2021,25.44
28.05.2021,25.45
31.05.2021,25.45
01.06.2021,25.46
02.06.2021,25.465
03.06.2021,25.45
04.06.2021,25.445
07.06.2021,25.395
08.06.2021,25.4
09.06.2021,25.375
10.06.2021,25.39
11.06.2021,25.335
14.06.2021,25.42
15.06.2021,25.45
16.06.2021,25.475
17.06.2021,25.51
18.06.2021,25.52
21.06.2021,25.57
22.06.2021,25.535
23.06.2021,25.41
24.06.2021,25.43
25.06.2021,25.485
28.06.2021,25.5
29.06.2021,25.48
30.06.2021,25.485
01.07.2021,25.505
02.07.2021,25.605
07.07.2021,25.69
08.07.2021,25.895
09.07.2021,25.8
12.07.2021,25.725
13.07.2021,25.645
14.07.2021,25.645
15.07.2021,25.585
16.07.2021,25.535
19.07.2021,25.605
20.07.2021,25.655
21.07.2021,25.695
22.07.2021,25.64
23.07.2021,25.65
26.07.2021,25.63
27.07.2021,25.685
28.07.2021,25.625
29.07.2021,25.505
30.07.2021,25.5
02.08.2021,25.475
03.08.2021,25.485
04.08.2021,25.435
05.08.2021,25.415
06.08.2021,25.41
09.08.2021,25.39
10.08.2021,25.38
11.08.2021,25.405
12.08.2021,25.4
13.08.2021,25.385
16.08.2021,25.425
17.08.2021,25.44
18.08.2021,25.44
19.08.2021,25.5
20.08.2021,25.555
23.08.2021,25.515
24.08.2021,25.525
25.08.2021,25.53
26.08.2021,25.545
27.08.2021,25.56
30.08.2021,25.565
31.08.2021,25.525
01.09.2021,25.41
02.09.2021,25.38
03.09.2021,25.42
06.09.2021,25.4
07.09.2021,25.42
08.09.2021,25.395
09.09.2021,25.4
10.09.2021,25.29
13.09.2021,25.35
14.09.2021,25.39
15.09.2021,25.32
16.09.2021,25.28
17.09.2021,25.295
20.09.2021,25.43
21.09.2021,25.405
22.09.2021,25.38
23.09.2021,25.355
24.09.2021,25.41
27.09.2021,25.445
29.09.2021,25.455
30.09.2021,25.495
01.10.2021,25.31
04.10.2021,25.32
05.10.2021,25.31
06.10.2021,25.415
07.10.2021,25.41
08.10.2021,25.435
11.10.2021,25.4
12.10.2021,25.375
13.10.2021,25.37
14.10.2021,25.385
15.10.2021,25.405
18.10.2021,25.45
19.10.2021,25.505
20.10.2021,25.52
21.10.2021,25.615
22.10.2021,25.655
25.10.2021,25.735
26.10.2021,25.7
27.10.2021,25.685
29.10.2021,25.695
01.11.2021,25.635
02.11.2021,25.57
03.11.2021,25.545
04.11.2021,25.48
05.11.2021,25.275
08.11.2021,25.25
09.11.2021,25.195
10.11.2021,25.21
11.11.2021,25.255
12.11.2021,25.24
15.11.2021,25.215
16.11.2021,25.23
18.11.2021,25.23
19.11.2021,25.415
22.11.2021,25.375
23.11.2021,25.445
24.11.2021,25.5
25.11.2021,25.475
26.11.2021,25.665
29.11.2021,25.67
30.11.2021,25.525
01.12.2021,25.445
02.12.2021,25.42
03.12.2021,25.415
06.12.2021,25.42
07.12.2021,25.465
08.12.2021,25.475
09.12.2021,25.435
10.12.2021,25.365
13.12.2021,25.405
14.12.2021,25.335
15.12.2021,25.27
16.12.2021,25.28
17.12.2021,25.26
20.12.2021,25.235
21.12.2021,25.24
22.12.2021,25.245
23.12.2021,25.085
27.12.2021,25.14
28.12.2021,24.98
29.12.2021,24.96
30.12.2021,24.915
31.12.2021,24.86
