pair,time,type,price,cost,fee,vol
XXBTZEUR,2017-06-14 16:37:33,buy,3491.04,385,7.67,0.05602
XETHZEUR,2017-06-14 16:37:33,buy,310,760.57,29.18,2.6055
XETHXXBT,2017-09-20 15:04:44.5042,sell,0.0728,0.02184,3.5E-05,0.3
XXBTZEUR,2017-09-29 16:18:49.6436,sell,3555.1,8.98729,0.02337,0.002528
XXBTZEUR,2017-09-30 01:45:41.8651,sell,3552.5,8.0862,0.02102,0.0022762
XXBTZEUR,2017-09-30 01:50:13.5821,sell,3554.3,8.0903,0.02103,0.0022762
XXBTZEUR,2017-09-30 04:45:03.7229,sell,3556,7.28475,0.01894,0.00204858
XXBTZEUR,2017-10-01 23:18:59.1411,sell,3680.9,7.3618,0.01914,0.002
XXBTZEUR,2017-10-01 23:23:54.3426,sell,3685.9,7.3718,0.01179,0.002
XXBTZEUR,2017-10-01 23:53:48.9225,sell,3688.6,8.85696,0.02303,0.00240117
XXBTZEUR,2017-10-02 00:00:53.3604,sell,3688.9,11.36738,0.01819,0.00308151
XXBTZEUR,2017-10-02 00:29:01.7202,sell,3688.8,13.49839,0.0351,0.00365929
XXBTZEUR,2017-10-02 00:34:10.7287,sell,3688,15.18239,0.03947,0.0041167
XXBTZEUR,2017-10-02 01:04:07.0941,sell,3719.5,16.52429,0.04296,0.00444261
XXMRZEUR,2017-10-02 08:08:47.2305,buy,78.3,9.99891,0.02599717,0.1277
XXMRZEUR,2017-10-02 08:19:19.68,buy,78.08,9.99424,0.02598502,0.128
XXBTZEUR,2017-10-02 12:34:19.3193,sell,3742.5,7.485,0.01946,0.002
XXBTZEUR,2017-10-02 12:44:37.9623,sell,3710,7.42,0.01929,0.002
XXBTZEUR,2017-10-02 12:57:39.6223,buy,3718.3,9.66758,0.01547,0.0026
XXBTZEUR,2017-10-02 13:09:18.9144,sell,3737.5,7.475,0.01196,0.002
XXMRZEUR,2017-10-02 15:58:55.0735,buy,77.94,9.991908,0.02597896,0.1282
XXMRZEUR,2017-10-03 08:34:22.2947,buy,75.05,7.505,0.012008,0.1
XXMRZEUR,2017-10-03 08:34:27.9887,buy,75.58,1.43602,0.00229763,0.019
XETHZEUR,2017-10-03 08:34:39.3457,buy,248.16,8.98339,0.01437,0.0362
XXBTZEUR,2017-10-03 08:41:18.5218,buy,3676.4,8.82336,0.01412,0.0024
XXMRZEUR,2017-10-03 17:06:23.0907,sell,76.4,7.64,0.012224,0.1
XXMRXXBT,2017-10-03 17:06:49.6534,sell,0.020888,0.0020888,5.43E-06,0.1
XETHZEUR,2017-10-03 20:36:03.7087,buy,247.43,8.98171,0.02335,0.0363
XETHZEUR,2017-10-03 20:41:33.7134,buy,247.44,8.98207,0.01437,0.0363
XXBTZEUR,2017-10-03 20:42:18.1647,buy,3649.9,8.75976,0.01402,0.0024
XXBTZEUR,2017-10-03 21:00:14.3932,buy,3642.1,10.19788,0.01632,0.0028
XETHXXBT,2017-10-04 09:42:55.5657,sell,0.06892,0.001378,2E-06,0.02
XETHXXBT,2017-10-04 09:47:06.0441,sell,0.06895,0.001875,3E-06,0.0272
XETHXXBT,2017-10-04 10:27:27.9656,sell,0.06918,0.002823,5E-06,0.0408
XETHXXBT,2017-10-04 10:32:37.353,sell,0.06919,0.003764,1E-05,0.0544
XETHXXBT,2017-10-04 10:36:02.9354,sell,0.06931,0.002828,5E-06,0.0408
XETHXXBT,2017-10-04 23:59:29.6591,sell,0.06927,0.001385,2E-06,0.02
XETHXXBT,2017-10-05 00:21:48.8679,sell,0.0693,0.001885,5E-06,0.0272
XXBTZEUR,2017-10-05 10:06:46.9436,sell,3608,7.216,0.01155,0.002
XXBTZEUR,2017-10-05 10:11:48.7484,sell,3613.3,12.79199,0.03326,0.00354025
XXBTZEUR,2017-10-05 10:41:42.4701,sell,3606.4,19.15135,0.04979,0.00531038
XXBTZEUR,2017-10-05 10:46:43.8428,sell,3615.7,25.601,0.06656,0.00708051
XETHZEUR,2017-10-05 12:52:01.7464,sell,250.45,5.009,0.00801,0.02
XETHZEUR,2017-10-05 12:56:44.3716,sell,250.82,5.0164,0.01304,0.02
XETHZEUR,2017-10-05 13:26:44.4636,sell,250.87,6.82994,0.01776,0.027225
XETHZEUR,2017-10-05 13:31:46.2538,sell,250.74,9.10186,0.02366,0.0363
XXBTZEUR,2017-10-05 22:18:42.6344,sell,3694.8,43.31965,0.06931,0.01172449
XETHZEUR,2017-10-06 05:52:36.7677,sell,253.39,5.0678,0.01318,0.02
XXBTZEUR,2017-10-06 10:27:32.8601,sell,3756.2,10.40633,0.01665,0.00277044
XXBTZEUR,2017-10-06 10:27:37.1196,sell,3759.7,11.28809,0.01806,0.00300239
XXBTZEUR,2017-10-06 14:08:45.6533,buy,3706.9,15.19829,0.02432,0.0041
XXMRZEUR,2017-10-06 16:54:10.5432,buy,77.67,14.205843,0.03693519,0.1829
XETHXXBT,2017-10-06 18:04:19.6364,sell,0.06964,0.001393,4E-06,0.02
XETHZEUR,2017-10-07 04:18:08.8096,buy,262.74,13.08445,0.02094,0.0498
XETHZEUR,2017-10-07 04:19:05.9807,sell,262.5,5.74703,0.01494,0.02189346
XETHXXBT,2017-10-07 04:19:12.0935,sell,0.0708,0.001926,5E-06,0.0272
XXMRZEUR,2017-10-07 11:20:18.4206,buy,76.62,12.52737,0.02004379,0.1635
XXBTZEUR,2017-10-07 22:59:46.1704,sell,3761.3,11.76862,0.0306,0.00312887
XXBTZEUR,2017-10-08 11:04:16.3987,sell,3787,10.93364,0.01749,0.00288715
XXMRZEUR,2017-10-08 19:14:26.4263,buy,76.41,13.318263,0.02130922,0.1743
XXBTZEUR,2017-10-08 23:09:14.3446,sell,3881,10.33941,0.02688,0.00266411
XETHZEUR,2017-10-09 01:34:12.7272,buy,258.3,13.06998,0.03398,0.0506
XETHZEUR,2017-10-09 05:59:13.8748,sell,261.04,5.74545,0.01494,0.02200985
XETHXXBT,2017-10-09 06:04:11.5023,sell,0.0674,0.001348,4E-06,0.02
XXMRZEUR,2017-10-09 07:19:25.1837,buy,75.49,12.508693,0.0325226,0.1657
XXBTZEUR,2017-10-09 11:14:15.6217,sell,3903.70084,10.00175,0.02601,0.00256212
XETHZEUR,2017-10-09 13:59:08.8326,buy,256.99,12.30982,0.03201,0.0479
XXMRZEUR,2017-10-09 19:24:20.2144,buy,73.98,11.363328,0.01818132,0.1536
XETHZEUR,2017-10-09 20:39:38.5486,sell,251.13,5.0226,0.01306,0.02
XETHZEUR,2017-10-09 21:39:18.5423,sell,251,5.02,0.01305,0.02
XETHZEUR,2017-10-09 21:54:57.6604,sell,252.69,4.31342,0.0069,0.01707
XETHZEUR,2017-10-09 21:55:03.4878,sell,252.69,0.74038,0.00118,0.00293
XXBTZEUR,2017-10-09 22:59:22.2346,buy,4032.4,11.29072,0.01807,0.0028
XXBTZEUR,2017-10-09 23:19:21.2013,sell,4036,8.072,0.01292,0.002
XXBTZEUR,2017-10-09 23:19:21.2453,sell,4036,2.3429,0.00375,0.0005805
XETHZEUR,2017-10-10 02:04:23.3345,buy,249.32,11.56845,0.03008,0.0464
XXMRZEUR,2017-10-10 07:29:22.4074,buy,73.74,10.670178,0.02774246,0.1447
XETHXXBT,2017-10-10 09:55:04.5533,sell,0.06235,0.001247,2E-06,0.02
XETHZEUR,2017-10-10 10:14:38.5223,sell,252.11,5.0422,0.01311,0.02
XXBTZEUR,2017-10-10 11:29:15.276,sell,4075.5,9.31635,0.02422,0.00228594
XETHZEUR,2017-10-10 20:04:25.1834,buy,252.8,10.94624,0.01751,0.0433
XXBTZEUR,2017-10-10 22:09:34.2462,buy,4076.9,9.78456,0.02544,0.0024
XETHXXBT,2017-10-10 22:19:36.1214,sell,0.0623,0.001246,3E-06,0.02
XETHXXBT,2017-10-10 22:24:43.2186,sell,0.06241,0.0014,4E-06,0.022425
XXMRZEUR,2017-10-10 23:05:52.6513,buy,72.68,9.361184,0.01497789,0.1288
XXMRZEUR,2017-10-11 06:24:09.9454,sell,73.75,7.375,0.019175,0.1
XXMRZEUR,2017-10-11 06:29:13.9755,sell,73.75,7.375,0.019175,0.1
XXMRXXBT,2017-10-11 06:39:18.4916,sell,0.018231,0.0018231,4.74E-06,0.1
XXMRXXBT,2017-10-11 06:44:16.7053,sell,0.018234,0.0018234,4.74E-06,0.1
XXBTZEUR,2017-10-11 08:14:30.5713,sell,4067.2,12.08361,0.01933,0.00297099
XXMRZEUR,2017-10-11 18:39:11.6181,sell,74.15,7.415,0.019279,0.1
XXMRZEUR,2017-10-11 18:43:51.7797,sell,74.26,7.426,0.0118816,0.1
XXMRZEUR,2017-10-11 18:48:31.4871,sell,74.19,7.419,0.0192894,0.1
XXMRZEUR,2017-10-11 19:18:47.4903,sell,74.24,7.424,0.0193024,0.1
XXMRZEUR,2017-10-11 19:33:25.4407,sell,74.31,7.431,0.0193206,0.1
XXMRZEUR,2017-10-11 19:38:23.8589,sell,74.1,7.41,0.019266,0.1
XXBTZEUR,2017-10-12 07:27:54.9112,sell,4123,11.30308,0.01808,0.00274147
XXBTZEUR,2017-10-12 07:30:41.4752,sell,4123.7,20.86328,0.03338,0.00505936
XXMRZEUR,2017-10-12 10:58:34.7782,buy,73.06,16.606538,0.043177,0.2273
